{
  "name": "starswithoutnumber",
  "title": "Stars Without Number",
  "description": "A system for playing the revised edition of Stars Without Number roleplaying game within the Foundry Virtual Tabletop environment.",
  "version": 0.01,
  "author": "Skaterskunk",
  "scripts": [],
  "esmodules": ["swn.js"],
  "styles": ["swn.css"],
  "packs": [

  ],
  "languages": [

  ],
  "socket": true,
  "initiative": "1d8 + @attributes.dexterity.mod + @attributes.initiative.value",
  "gridDistance": 1,
  "gridUnits": "m",
  "primaryTokenAttribute": "attributes.hp",
  "secondaryTokenAttribute": null,
  "url": null,
  "manifest": null,
  "download": null
}